{
  "bluetooth.gaiamobile.org": {
    "origin": "app://bluetooth.gaiamobile.org",
    "installOrigin": "app://bluetooth.gaiamobile.org",
    "receipt": null,
    "installTime": 1540540072001,
    "updateTime": 1540540072001,
    "manifestURL": "app://bluetooth.gaiamobile.org/manifest.webapp",
    "localId": 1,
    "appStatus": 3,
    "manifestHash": "bc4bc1a6e34ccb38512e95688a614972",
    "packageHash": "e6bd46618b6810266ab13bce6ad7a34e"
  },
  "bookmark.gaiamobile.org": {
    "origin": "app://bookmark.gaiamobile.org",
    "installOrigin": "app://bookmark.gaiamobile.org",
    "receipt": null,
    "installTime": 1540540072001,
    "updateTime": 1540540072001,
    "manifestURL": "app://bookmark.gaiamobile.org/manifest.webapp",
    "localId": 2,
    "appStatus": 3,
    "manifestHash": "4a29a3bb965e7b29e279da6b99a36d1f"
  },
  "calendar.gaiamobile.org": {
    "origin": "app://calendar.gaiamobile.org",
    "installOrigin": "app://calendar.gaiamobile.org",
    "receipt": null,
    "installTime": 1540540072001,
    "updateTime": 1540540072001,
    "manifestURL": "app://calendar.gaiamobile.org/manifest.webapp",
    "localId": 3,
    "appStatus": 3,
    "manifestHash": "b0ad9fd88756f21d0b7893e052eaffe3",
    "packageHash": "41887880e95fbd69cbd90c02828eec7d"
  },
  "callscreen.gaiamobile.org": {
    "origin": "app://callscreen.gaiamobile.org",
    "installOrigin": "app://callscreen.gaiamobile.org",
    "receipt": null,
    "installTime": 1540540072001,
    "updateTime": 1540540072001,
    "manifestURL": "app://callscreen.gaiamobile.org/manifest.webapp",
    "localId": 4,
    "appStatus": 3,
    "manifestHash": "64f732be019e5724b7be202bb140e3dc"
  },
  "camera.gaiamobile.org": {
    "origin": "app://camera.gaiamobile.org",
    "installOrigin": "app://camera.gaiamobile.org",
    "receipt": null,
    "installTime": 1540540072001,
    "updateTime": 1540540072001,
    "manifestURL": "app://camera.gaiamobile.org/manifest.webapp",
    "localId": 5,
    "appStatus": 3,
    "manifestHash": "463c3fc3eccccaeb6ebe25cf74d5e79c"
  },
  "chameleontest.gaiamobile.org": {
    "origin": "app://chameleontest.gaiamobile.org",
    "installOrigin": "app://chameleontest.gaiamobile.org",
    "receipt": null,
    "installTime": 1540540072001,
    "updateTime": 1540540072001,
    "manifestURL": "app://chameleontest.gaiamobile.org/manifest.webapp",
    "localId": 6,
    "appStatus": 3,
    "manifestHash": "9d759826ca09a32f127c7199263d306a"
  },
  "clock.gaiamobile.org": {
    "origin": "app://clock.gaiamobile.org",
    "installOrigin": "app://clock.gaiamobile.org",
    "receipt": null,
    "installTime": 1540540072001,
    "updateTime": 1540540072001,
    "manifestURL": "app://clock.gaiamobile.org/manifest.webapp",
    "localId": 7,
    "appStatus": 3,
    "manifestHash": "52a464815cfaec93e110ffdf328873b1"
  },
  "communications.gaiamobile.org": {
    "origin": "app://communications.gaiamobile.org",
    "installOrigin": "app://communications.gaiamobile.org",
    "receipt": null,
    "installTime": 1540540072001,
    "updateTime": 1540540072001,
    "manifestURL": "app://communications.gaiamobile.org/manifest.webapp",
    "localId": 8,
    "appStatus": 3,
    "manifestHash": "1967ab144f2fab2dc0ac307809e89f62"
  },
  "contact.gaiamobile.org": {
    "origin": "app://contact.gaiamobile.org",
    "installOrigin": "app://contact.gaiamobile.org",
    "receipt": null,
    "installTime": 1540540072001,
    "updateTime": 1540540072001,
    "manifestURL": "app://contact.gaiamobile.org/manifest.webapp",
    "localId": 9,
    "appStatus": 3,
    "manifestHash": "2b1ba617c73285119f744a75b0aab915",
    "packageHash": "ac31df7d1654ce5e7e69dbac44e9497c"
  },
  "default_theme.gaiamobile.org": {
    "origin": "app://default_theme.gaiamobile.org",
    "installOrigin": "app://default_theme.gaiamobile.org",
    "receipt": null,
    "installTime": 1540540072001,
    "updateTime": 1540540072001,
    "manifestURL": "app://default_theme.gaiamobile.org/manifest.webapp",
    "localId": 10,
    "appStatus": 3,
    "manifestHash": "e1cd8ee7eef8c0bef4b8e61d59f20b0d"
  },
  "download.gaiamobile.org": {
    "origin": "app://download.gaiamobile.org",
    "installOrigin": "app://download.gaiamobile.org",
    "receipt": null,
    "installTime": 1540540072001,
    "updateTime": 1540540072001,
    "manifestURL": "app://download.gaiamobile.org/manifest.webapp",
    "localId": 11,
    "appStatus": 3,
    "manifestHash": "eebfa6709af41aee3e8e1cf317626af2"
  },
  "email.gaiamobile.org": {
    "origin": "app://email.gaiamobile.org",
    "installOrigin": "app://email.gaiamobile.org",
    "receipt": null,
    "installTime": 1540540072001,
    "updateTime": 1540540072001,
    "manifestURL": "app://email.gaiamobile.org/manifest.webapp",
    "localId": 12,
    "appStatus": 3,
    "manifestHash": "324d9ab48066113b8cd16c83e0cb89e9"
  },
  "emergency-call.gaiamobile.org": {
    "origin": "app://emergency-call.gaiamobile.org",
    "installOrigin": "app://emergency-call.gaiamobile.org",
    "receipt": null,
    "installTime": 1540540072001,
    "updateTime": 1540540072001,
    "manifestURL": "app://emergency-call.gaiamobile.org/manifest.webapp",
    "localId": 13,
    "appStatus": 3,
    "manifestHash": "02b063c5e1a84e532e81e2a7abd62977"
  },
  "fm.gaiamobile.org": {
    "origin": "app://fm.gaiamobile.org",
    "installOrigin": "app://fm.gaiamobile.org",
    "receipt": null,
    "installTime": 1540540072001,
    "updateTime": 1540540072001,
    "manifestURL": "app://fm.gaiamobile.org/manifest.webapp",
    "localId": 14,
    "appStatus": 3,
    "manifestHash": "41b627b24c2afc13955eb82c481e371f"
  },
  "ftu.gaiamobile.org": {
    "origin": "app://ftu.gaiamobile.org",
    "installOrigin": "app://ftu.gaiamobile.org",
    "receipt": null,
    "installTime": 1540540072001,
    "updateTime": 1540540072001,
    "manifestURL": "app://ftu.gaiamobile.org/manifest.webapp",
    "localId": 15,
    "appStatus": 3,
    "manifestHash": "0f5a727088af609f6fb0fc2317db7022"
  },
  "gallery.gaiamobile.org": {
    "origin": "app://gallery.gaiamobile.org",
    "installOrigin": "app://gallery.gaiamobile.org",
    "receipt": null,
    "installTime": 1540540072001,
    "updateTime": 1540540072001,
    "manifestURL": "app://gallery.gaiamobile.org/manifest.webapp",
    "localId": 16,
    "appStatus": 3,
    "manifestHash": "46032afbc9f7f01b1d49f92fa7dd5d54"
  },
  "keyboard.gaiamobile.org": {
    "origin": "app://keyboard.gaiamobile.org",
    "installOrigin": "app://keyboard.gaiamobile.org",
    "receipt": null,
    "installTime": 1540540072001,
    "updateTime": 1540540072001,
    "manifestURL": "app://keyboard.gaiamobile.org/manifest.webapp",
    "localId": 17,
    "appStatus": 3,
    "manifestHash": "130441587042a2a3d3f6ac2b4a981d38"
  },
  "launcher.gaiamobile.org": {
    "origin": "app://launcher.gaiamobile.org",
    "installOrigin": "app://launcher.gaiamobile.org",
    "receipt": null,
    "installTime": 1540540072001,
    "updateTime": 1540540072001,
    "manifestURL": "app://launcher.gaiamobile.org/manifest.webapp",
    "localId": 18,
    "appStatus": 3,
    "manifestHash": "942654b1946215e9ff247f1047a51a2a",
    "packageHash": "6a91357ab8a9a9b187cceb35517ebccb"
  },
  "music.gaiamobile.org": {
    "origin": "app://music.gaiamobile.org",
    "installOrigin": "app://music.gaiamobile.org",
    "receipt": null,
    "installTime": 1540540072001,
    "updateTime": 1540540072001,
    "manifestURL": "app://music.gaiamobile.org/manifest.webapp",
    "localId": 19,
    "appStatus": 3,
    "manifestHash": "409610f9cfa00fd43cce05d2e1d85647"
  },
  "network-alerts.gaiamobile.org": {
    "origin": "app://network-alerts.gaiamobile.org",
    "installOrigin": "app://network-alerts.gaiamobile.org",
    "receipt": null,
    "installTime": 1540540072001,
    "updateTime": 1540540072001,
    "manifestURL": "app://network-alerts.gaiamobile.org/manifest.webapp",
    "localId": 20,
    "appStatus": 3,
    "manifestHash": "6992ed750c38aedd5730f4e2745f5bf2",
    "packageHash": "e7f498ba5a737924ed238f29e55a1902"
  },
  "operatorvariant.gaiamobile.org": {
    "origin": "app://operatorvariant.gaiamobile.org",
    "installOrigin": "app://operatorvariant.gaiamobile.org",
    "receipt": null,
    "installTime": 1540540072001,
    "updateTime": 1540540072001,
    "manifestURL": "app://operatorvariant.gaiamobile.org/manifest.webapp",
    "localId": 21,
    "appStatus": 3,
    "manifestHash": "363189a79413555c31c330f89537d0e9"
  },
  "ringtones.gaiamobile.org": {
    "origin": "app://ringtones.gaiamobile.org",
    "installOrigin": "app://ringtones.gaiamobile.org",
    "receipt": null,
    "installTime": 1540540072001,
    "updateTime": 1540540072001,
    "manifestURL": "app://ringtones.gaiamobile.org/manifest.webapp",
    "localId": 22,
    "appStatus": 3,
    "manifestHash": "48e13a9832f3f8aca2c1406fd9ef34db"
  },
  "search.gaiamobile.org": {
    "origin": "app://search.gaiamobile.org",
    "installOrigin": "app://search.gaiamobile.org",
    "receipt": null,
    "installTime": 1540540072001,
    "updateTime": 1540540072001,
    "manifestURL": "app://search.gaiamobile.org/manifest.webapp",
    "localId": 23,
    "appStatus": 3,
    "manifestHash": "2c4cca0e1f3157dd292099565a0a648a",
    "packageHash": "d846276eff6aa8496462f3554655da6f"
  },
  "settings.gaiamobile.org": {
    "origin": "app://settings.gaiamobile.org",
    "installOrigin": "app://settings.gaiamobile.org",
    "receipt": null,
    "installTime": 1540540072001,
    "updateTime": 1540540072001,
    "manifestURL": "app://settings.gaiamobile.org/manifest.webapp",
    "localId": 24,
    "appStatus": 3,
    "manifestHash": "0e82981468f896041cfe74095d1dd947"
  },
  "sms.gaiamobile.org": {
    "origin": "app://sms.gaiamobile.org",
    "installOrigin": "app://sms.gaiamobile.org",
    "receipt": null,
    "installTime": 1540540072001,
    "updateTime": 1540540072001,
    "manifestURL": "app://sms.gaiamobile.org/manifest.webapp",
    "localId": 25,
    "appStatus": 3,
    "manifestHash": "b01cc35c75f59084236adc197e0fcdb6"
  },
  "system.gaiamobile.org": {
    "origin": "app://system.gaiamobile.org",
    "installOrigin": "app://system.gaiamobile.org",
    "receipt": null,
    "installTime": 1540540072001,
    "updateTime": 1540540072001,
    "manifestURL": "app://system.gaiamobile.org/manifest.webapp",
    "localId": 26,
    "appStatus": 3,
    "manifestHash": "b7114d07b617bb679f034ce98369c2b6",
    "packageHash": "4219b709a1b16b6bbb304ce61f5bc7a5"
  },
  "video.gaiamobile.org": {
    "origin": "app://video.gaiamobile.org",
    "installOrigin": "app://video.gaiamobile.org",
    "receipt": null,
    "installTime": 1540540072001,
    "updateTime": 1540540072001,
    "manifestURL": "app://video.gaiamobile.org/manifest.webapp",
    "localId": 27,
    "appStatus": 3,
    "manifestHash": "d2ae7e4edcdffa0dc9aee9cc9c582c3f"
  },
  "wallpaper.gaiamobile.org": {
    "origin": "app://wallpaper.gaiamobile.org",
    "installOrigin": "app://wallpaper.gaiamobile.org",
    "receipt": null,
    "installTime": 1540540072001,
    "updateTime": 1540540072001,
    "manifestURL": "app://wallpaper.gaiamobile.org/manifest.webapp",
    "localId": 28,
    "appStatus": 3,
    "manifestHash": "76a8c39f357be9761669d15b4cf791f0"
  },
  "wappush.gaiamobile.org": {
    "origin": "app://wappush.gaiamobile.org",
    "installOrigin": "app://wappush.gaiamobile.org",
    "receipt": null,
    "installTime": 1540540072001,
    "updateTime": 1540540072001,
    "manifestURL": "app://wappush.gaiamobile.org/manifest.webapp",
    "localId": 29,
    "appStatus": 3,
    "manifestHash": "cc2f6e8ec23715f960b62b6c2a5e113a"
  },
  "keypad.gaiamobile.org": {
    "origin": "app://keypad.gaiamobile.org",
    "installOrigin": "app://keypad.gaiamobile.org",
    "receipt": null,
    "installTime": 1540540072001,
    "updateTime": 1540540072001,
    "manifestURL": "app://keypad.gaiamobile.org/manifest.webapp",
    "localId": 30,
    "appStatus": 3,
    "manifestHash": "ae8ca2b068df9bb63ecf129bd2f7b4d9",
    "packageHash": "ebdb3a3b3c6fd66d270fafa35f022273"
  },
  "jrdlog.gaiamobile.org": {
    "origin": "app://jrdlog.gaiamobile.org",
    "installOrigin": "app://jrdlog.gaiamobile.org",
    "receipt": null,
    "installTime": 1540540072001,
    "updateTime": 1540540072001,
    "manifestURL": "app://jrdlog.gaiamobile.org/manifest.webapp",
    "localId": 31,
    "appStatus": 3,
    "manifestHash": "5a3e0ee37fd4aa965345f25387582e75"
  },
  "testbox.gaiamobile.org": {
    "origin": "app://testbox.gaiamobile.org",
    "installOrigin": "app://testbox.gaiamobile.org",
    "receipt": null,
    "installTime": 1540540072001,
    "updateTime": 1540540072001,
    "manifestURL": "app://testbox.gaiamobile.org/manifest.webapp",
    "localId": 32,
    "appStatus": 3,
    "manifestHash": "8c5d9f0c74235e104e30591279ec8567"
  },
  "mmitest.gaiamobile.org": {
    "origin": "app://mmitest.gaiamobile.org",
    "installOrigin": "app://mmitest.gaiamobile.org",
    "receipt": null,
    "installTime": 1540540072001,
    "updateTime": 1540540072001,
    "manifestURL": "app://mmitest.gaiamobile.org/manifest.webapp",
    "localId": 44,
    "appStatus": 3,
    "manifestHash": "2f7e93fc2e01a624559526b75ede4173"
  },
  "dmconfigtest.gaiamobile.org": {
    "origin": "app://dmconfigtest.gaiamobile.org",
    "installOrigin": "app://dmconfigtest.gaiamobile.org",
    "receipt": null,
    "installTime": 1540540072001,
    "updateTime": 1540540072001,
    "manifestURL": "app://dmconfigtest.gaiamobile.org/manifest.webapp",
    "localId": 34,
    "appStatus": 3,
    "manifestHash": "3910e0f96171ecef8090ec45579f4be9"
  },
  "sysproptest.gaiamobile.org": {
    "origin": "app://sysproptest.gaiamobile.org",
    "installOrigin": "app://sysproptest.gaiamobile.org",
    "receipt": null,
    "installTime": 1540540072001,
    "updateTime": 1540540072001,
    "manifestURL": "app://sysproptest.gaiamobile.org/manifest.webapp",
    "localId": 35,
    "appStatus": 3,
    "manifestHash": "f20323614b6638eb64acdeb819225ab1"
  },
  "calculator.gaiamobile.org": {
    "origin": "app://calculator.gaiamobile.org",
    "installOrigin": "app://calculator.gaiamobile.org",
    "receipt": null,
    "installTime": 1540540072001,
    "updateTime": 1540540072001,
    "manifestURL": "app://calculator.gaiamobile.org/manifest.webapp",
    "localId": 36,
    "appStatus": 3,
    "manifestHash": "10f32fb3abd0873b83c6ca77cb916f0c",
    "packageHash": "cc074ac2fdfb13e84dd73d2042a8cb00"
  },
  "dmconfiguration.gaiamobile.org": {
    "origin": "app://dmconfiguration.gaiamobile.org",
    "installOrigin": "app://dmconfiguration.gaiamobile.org",
    "receipt": null,
    "installTime": 1540540072001,
    "updateTime": 1540540072001,
    "manifestURL": "app://dmconfiguration.gaiamobile.org/manifest.webapp",
    "localId": 37,
    "appStatus": 3,
    "manifestHash": "eb38cf73ce602781e183de1ec8dc1688"
  },
  "notes.gaiamobile.org": {
    "origin": "app://notes.gaiamobile.org",
    "installOrigin": "app://notes.gaiamobile.org",
    "receipt": null,
    "installTime": 1540540072001,
    "updateTime": 1540540072001,
    "manifestURL": "app://notes.gaiamobile.org/manifest.webapp",
    "localId": 41,
    "appStatus": 3,
    "manifestHash": "4041cfb7cb729bc411a32e19b9e8e201",
    "packageHash": "193f4c5915fba5bcc5286c9fa466196e"
  },
  "soundrecorder.gaiamobile.org": {
    "origin": "app://soundrecorder.gaiamobile.org",
    "installOrigin": "app://soundrecorder.gaiamobile.org",
    "receipt": null,
    "installTime": 1540540072001,
    "updateTime": 1540540072001,
    "manifestURL": "app://soundrecorder.gaiamobile.org/manifest.webapp",
    "localId": 42,
    "appStatus": 3,
    "manifestHash": "49eb86ef9b697dedb440d56b5f1eb304",
    "packageHash": "d1969f486f1cdf4f40f3a2ae7445e020"
  },
  "apnconfig.gaiamobile.org": {
    "origin": "app://apnconfig.gaiamobile.org",
    "installOrigin": "app://apnconfig.gaiamobile.org",
    "receipt": null,
    "installTime": 1540540072001,
    "updateTime": 1540540072001,
    "manifestURL": "app://apnconfig.gaiamobile.org/manifest.webapp",
    "localId": 45,
    "appStatus": 3,
    "manifestHash": "9369eec9c35a4d1cc4bbfe87a5fadd68"
  },
  "logmanager.gaiamobile.org": {
    "origin": "app://logmanager.gaiamobile.org",
    "installOrigin": "app://logmanager.gaiamobile.org",
    "receipt": null,
    "installTime": 1540540072001,
    "updateTime": 1540540072001,
    "manifestURL": "app://logmanager.gaiamobile.org/manifest.webapp",
    "localId": 46,
    "appStatus": 3,
    "manifestHash": "cab62439ac86bc8432590f8235dd34cf"
  },
  "files.gerda.tech": {
    "origin": "app://files.gerda.tech",
    "installOrigin": "app://files.gerda.tech",
    "receipt": null,
    "installTime": 1540540072001,
    "updateTime": 1540540072001,
    "manifestURL": "app://files.gerda.tech/manifest.webapp",
    "localId": 47,
    "appStatus": 3
  },
  "pkg.gerda.tech": {
    "origin": "app://pkg.gerda.tech",
    "installOrigin": "app://pkg.gerda.tech",
    "receipt": null,
    "installTime": 1540540072001,
    "updateTime": 1540540072001,
    "manifestURL": "app://pkg.gerda.tech/manifest.webapp",
    "localId": 48,
    "appStatus": 3
  },
  "gab.gerda.tech": {
    "origin": "app://gab.gerda.tech",
    "installOrigin": "app://gab.gerda.tech",
    "receipt": null,
    "installTime": 1540540072001,
    "updateTime": 1540540072001,
    "manifestURL": "app://gab.gerda.tech/manifest.webapp",
    "localId": 49,
    "appStatus": 3
  },
  "easteregg.gerda.tech": {
    "origin": "app://easteregg.gerda.tech",
    "installOrigin": "app://easteregg.gerda.tech",
    "receipt": null,
    "installTime": 1540540072001,
    "updateTime": 1540540072001,
    "manifestURL": "app://easteregg.gerda.tech/manifest.webapp",
    "localId": 50,
    "appStatus": 3
  },
  "qpwn.gerda.tech": {
    "origin": "app://qpwn.gerda.tech",
    "installOrigin": "app://qpwn.gerda.tech",
    "receipt": null,
    "installTime": 1540540072001,
    "updateTime": 1540540072001,
    "manifestURL": "app://qpwn.gerda.tech/manifest.webapp",
    "localId": 51,
    "appStatus": 3
  }
}
