[
  {
    "name": [
      "Atenci&#xF3;n al Cliente"
    ],
    "givenName": [
      "Atenci&#xF3;n al Cliente"
    ],
    "tel": [
      {
        "value": "1004",
        "type": ["mobile"]
      }
    ]
  },
  {
    "name": [
      "At. Cliente (extranjero)"
    ],
    "givenName": [
      "At. Cliente (extranjero)"
    ],
    "tel": [
      {
        "value": "+34699991004",
        "type": ["mobile"]
      }
    ]
  },
  {
    "name": [
      "Inf. 11822"
    ],
    "givenName": [
      "Inf. 11822"
    ],
    "tel": [
      {
        "value": "11822",
        "type": ["mobile"]
      }
    ]
  },
  {
    "name": [
      "Activar Buz&#xF3;n Movistar"
    ],
    "givenName": [
      "Activar Buz&#xF3;n Movistar"
    ],
    "tel": [
      {
        "value": "22500",
        "type": ["mobile"]
      }
    ]
  },
  {
    "name": [
      "Emergencias"
    ],
    "givenName": [
      "Emergencias"
    ],
    "tel": [
      {
        "value": "112",
        "type": ["mobile"]
      }
    ]
  },
  {
    "name": [
      "Atenci&#xF3;n Negocios"
    ],
    "givenName": [
      "Atenci&#xF3;n Negocios"
    ],
    "tel": [
      {
        "value": "900101010",
        "type": ["mobile"]
      }
    ]
  }
]
